
Layer (type)                 Output Shape              Param #   
=================================================================
input_1 (InputLayer)         (None, 17)                0         
_________________________________________________________________
dense_1 (Dense)              (None, 400)               7200      
_________________________________________________________________
dense_2 (Dense)              (None, 300)               120300    
_________________________________________________________________
dense_3 (Dense)              (None, 6)                 1806      
=================================================================
Total params: 129,306
Trainable params: 129,306
Non-trainable params: 0
_________________________________________________________________
None
Model: "model_2"
_________________________________________________________________
Layer (type)                 Output Shape              Param #   
=================================================================
input_2 (InputLayer)         (None, 17)                0         
_________________________________________________________________
dense_4 (Dense)              (None, 400)               7200      
_________________________________________________________________
dense_5 (Dense)              (None, 300)               120300    
_________________________________________________________________
dense_6 (Dense)              (None, 6)                 1806      
=================================================================
Total params: 129,306
Trainable params: 129,306
Non-trainable params: 0
_________________________________________________________________
None
/home/dadman/AI_S3/part1/ddpg/network/ac.py:107: UserWarning: Update your `Model` call to the Keras 2 API: `Model(inputs=[<tf.Tenso..., outputs=Tensor("de...)`
  model = Model(inputs=[state_input,action_input], output=x)
Model: "model_3"
__________________________________________________________________________________________________
Layer (type)                    Output Shape         Param #     Connected to                     
==================================================================================================
state_input (InputLayer)        (None, 17)           0                                            
__________________________________________________________________________________________________
dense_7 (Dense)                 (None, 400)          7200        state_input[0][0]                
__________________________________________________________________________________________________
action_input (InputLayer)       (None, 6)            0                                            
__________________________________________________________________________________________________
dense_8 (Dense)                 (None, 300)          120300      dense_7[0][0]                    
__________________________________________________________________________________________________
dense_9 (Dense)                 (None, 300)          2100        action_input[0][0]               
__________________________________________________________________________________________________
add_1 (Add)                     (None, 300)          0           dense_8[0][0]                    
                                                                 dense_9[0][0]                    
__________________________________________________________________________________________________
dense_10 (Dense)                (None, 300)          90300       add_1[0][0]                      
__________________________________________________________________________________________________
dense_11 (Dense)                (None, 1)            301         dense_10[0][0]                   
==================================================================================================
Total params: 220,201
Trainable params: 220,201
Non-trainable params: 0
__________________________________________________________________________________________________
None
Model: "model_4"
__________________________________________________________________________________________________
Layer (type)                    Output Shape         Param #     Connected to                     
==================================================================================================
state_input (InputLayer)        (None, 17)           0                                            
__________________________________________________________________________________________________
dense_12 (Dense)                (None, 400)          7200        state_input[0][0]                
__________________________________________________________________________________________________
action_input (InputLayer)       (None, 6)            0                                            
__________________________________________________________________________________________________
dense_13 (Dense)                (None, 300)          120300      dense_12[0][0]                   
__________________________________________________________________________________________________
dense_14 (Dense)                (None, 300)          2100        action_input[0][0]               
__________________________________________________________________________________________________
add_2 (Add)                     (None, 300)          0           dense_13[0][0]                   
                                                                 dense_14[0][0]                   
__________________________________________________________________________________________________
dense_15 (Dense)                (None, 300)          90300       add_2[0][0]                      
__________________________________________________________________________________________________
dense_16 (Dense)                (None, 1)            301         dense_15[0][0]                   
==================================================================================================